APM Chapter 6 HW: Linear Regression and its Cousins
…
Answer: 388 predictors remain.

fingerprints <- fingerprints |> 
  data.frame() |> 
  tibble()

cols_to_remove <- nearZeroVar(fingerprints)
  
fp_reduced <- fingerprints |> 
  select(-all_of(cols_to_remove)) |> 
  tibble()
fp_reduced |> print(n = 10)

# A tibble: 165 × 388
      X1    X2    X3    X4    X5    X6   X11   X12   X15   X16   X20   X21   X25
   <dbl> <dbl> <dbl> <dbl> <dbl> <dbl> <dbl> <dbl> <dbl> <dbl> <dbl> <dbl> <dbl>
 1     0     0     0     0     0     1     0     1     0     0     0     0     0
 2     0     0     0     0     0     0     0     1     0     0     0     0     0
 3     0     0     0     0     0     1     0     0     0     0     0     0     0
 4     0     0     0     0     0     0     0     1     0     0     0     0     0
 5     0     0     0     0     0     0     0     1     0     0     0     0     0
 6     0     0     0     0     0     0     0     1     0     0     0     0     0
 7     0     0     0     0     0     1     0     0     0     1     0     0     0
 8     0     0     0     0     0     0     0     0     0     0     0     0     0
 9     0     0     0     0     0     1     0     0     1     1     0     0     0
10     0     0     0     0     0     0     0     1     0     0     0     0     0
# ℹ 155 more rows
# ℹ 375 more variables: X26 <dbl>, X27 <dbl>, X28 <dbl>, X29 <dbl>, X35 <dbl>,
#   X36 <dbl>, X37 <dbl>, X38 <dbl>, X39 <dbl>, X40 <dbl>, X41 <dbl>,
#   X42 <dbl>, X43 <dbl>, X44 <dbl>, X46 <dbl>, X47 <dbl>, X48 <dbl>,
#   X49 <dbl>, X50 <dbl>, X51 <dbl>, X52 <dbl>, X53 <dbl>, X54 <dbl>,
#   X55 <dbl>, X56 <dbl>, X57 <dbl>, X58 <dbl>, X59 <dbl>, X60 <dbl>,
#   X61 <dbl>, X62 <dbl>, X63 <dbl>, X64 <dbl>, X65 <dbl>, X66 <dbl>, …
…
The matrix processPredictors contains the 57 predictors (12 describing the input biological material and 45 describing the process predictors) for the 176 manufacturing runs. yield contains the percent yield for each run.

A small percentage of cells in the predictor set contain missing values. Use an imputation function to fill in these missing values (e.g., see Sect. 3.8).

Examine columns with NA values.

na_counts <- sapply(chem_manu_process, \(x) sum(is.na(x)))

na_counts <- tibble(vars = names(na_counts),
       na_counts = as.integer(na_counts)) |> 
  filter(na_counts > 0)
na_counts |> print(n = 5)

# A tibble: 28 × 2
  vars                    na_counts
  <chr>                       <int>
1 manufacturing_process01         1
2 manufacturing_process02         3
3 manufacturing_process03        15
4 manufacturing_process04         1
5 manufacturing_process05         1
# ℹ 23 more rows
…
