Lab 7: Rectangling and Webscraping
…
got_df <- tibble(json = got_chars)

#Aliases Tibble
got_aliases <- got_df |> 
                unnest_wider(json) |> 
                select(id, name, aliases) |> 
                unnest_longer(aliases) |> 
                rename(alias = aliases) |> 
                filter(alias != "")
got_aliases

# A tibble: 107 × 3
      id name             alias             
   <int> <chr>            <chr>             
 1  1022 Theon Greyjoy    Prince of Fools   
 2  1022 Theon Greyjoy    Theon Turncloak   
 3  1022 Theon Greyjoy    Reek              
 4  1022 Theon Greyjoy    Theon Kinslayer   
 5  1052 Tyrion Lannister The Imp           
 6  1052 Tyrion Lannister Halfman           
 7  1052 Tyrion Lannister The boyman        
 8  1052 Tyrion Lannister Giant of Lannister
 9  1052 Tyrion Lannister Lord Tywin's Doom 
10  1052 Tyrion Lannister Lord Tywin's Bane 
# ℹ 97 more rows

#Allegiances Tibble
got_allegiances <- got_df |> 
                unnest_wider(json) |> 
                select(id, name, allegiances) |> 
                unnest_longer(allegiances) |> 
                rename(allegiance = allegiances)
got_allegiances

# A tibble: 33 × 3
      id name               allegiance                       
   <int> <chr>              <chr>                            
 1  1022 Theon Greyjoy      House Greyjoy of Pyke            
 2  1052 Tyrion Lannister   House Lannister of Casterly Rock 
 3  1074 Victarion Greyjoy  House Greyjoy of Pyke            
 4  1166 Areo Hotah         House Nymeros Martell of Sunspear
 5   130 Arianne Martell    House Nymeros Martell of Sunspear
 6  1303 Daenerys Targaryen House Targaryen of King's Landing
 7  1319 Davos Seaworth     House Baratheon of Dragonstone   
 8  1319 Davos Seaworth     House Seaworth of Cape Wrath     
 9   148 Arya Stark         House Stark of Winterfell        
10   149 Arys Oakheart      House Oakheart of Old Oak        
# ℹ 23 more rows

#Books Tibble
got_books <- got_df |> 
                unnest_wider(json) |> 
                select(id, name, books) |> 
                unnest_longer(books) |> 
                rename(book = books)
got_books

# A tibble: 77 × 3
      id name              book                     
   <int> <chr>             <chr>                    
 1  1022 Theon Greyjoy     A Game of Thrones        
 2  1022 Theon Greyjoy     A Storm of Swords        
 3  1022 Theon Greyjoy     A Feast for Crows        
 4  1052 Tyrion Lannister  A Feast for Crows        
 5  1052 Tyrion Lannister  The World of Ice and Fire
 6  1074 Victarion Greyjoy A Game of Thrones        
 7  1074 Victarion Greyjoy A Clash of Kings         
 8  1074 Victarion Greyjoy A Storm of Swords        
 9  1109 Will              A Clash of Kings         
10  1166 Areo Hotah        A Game of Thrones        
# ℹ 67 more rows

#TV Series Tibble
got_tv_series <- got_df |> 
                unnest_wider(json) |> 
                select(id, name, tvSeries) |> 
                unnest_longer(tvSeries) |> 
                rename(tvseries = tvSeries) |> 
                filter(tvseries != "")
got_tv_series

# A tibble: 93 × 3
      id name             tvseries
   <int> <chr>            <chr>   
 1  1022 Theon Greyjoy    Season 1
 2  1022 Theon Greyjoy    Season 2
 3  1022 Theon Greyjoy    Season 3
 4  1022 Theon Greyjoy    Season 4
 5  1022 Theon Greyjoy    Season 5
 6  1022 Theon Greyjoy    Season 6
 7  1052 Tyrion Lannister Season 1
 8  1052 Tyrion Lannister Season 2
 9  1052 Tyrion Lannister Season 3
10  1052 Tyrion Lannister Season 4
# ℹ 83 more rows
…
